{
    "$schema": "http://json-schema.org/draft-06/schema#",
    "title": "Example Schema",
    "type": "object",
    "properties": {
        "id": {
            "type": "integer"
        },
        "field1": {
            "type": "integer"
        }
    }
}
